<svg width="18" height="19" viewBox="0 0 18 19" fill="none" xmlns="http://www.w3.org/2000/svg">
<g clip-path="url(#clip0)">
<path fill-rule="evenodd" clip-rule="evenodd" d="M14.1961 11.5655L13.4304 12.6051L9.09781 18.5L4.76523 12.6051L3.9995 11.5655L3.21616 10.4999C2.61604 9.48566 2.30095 8.33355 2.30299 7.16102C2.30299 7.01003 2.30299 6.86121 2.31839 6.71238C2.43434 5.0273 3.199 3.44831 4.45763 2.29495C5.71626 1.1416 7.37487 0.5 9.09781 0.5C10.8208 0.5 12.4794 1.1416 13.738 2.29495C14.9966 3.44831 15.7613 5.0273 15.8772 6.71238C15.8926 6.86121 15.8926 7.01003 15.8926 7.16102C15.8947 8.33355 15.5796 9.48566 14.9795 10.4999L14.1961 11.5655ZM13.8199 7.16102C13.8199 7.02082 13.8199 6.88062 13.8023 6.74258C13.6945 5.59255 13.1523 4.52349 12.2819 3.74511C11.4116 2.96674 10.276 2.53522 9.09781 2.53522C7.91967 2.53522 6.78404 2.96674 5.9137 3.74511C5.04336 4.52349 4.50113 5.59255 4.39337 6.74258C4.38016 6.88062 4.37576 7.02082 4.37576 7.16102C4.37576 8.38865 4.87326 9.56599 5.75882 10.4341C6.64437 11.3021 7.84545 11.7898 9.09781 11.7898C10.3502 11.7898 11.5512 11.3021 12.4368 10.4341C13.3224 9.56599 13.8199 8.38865 13.8199 7.16102Z" fill="#8C847F"/>
<path fill-rule="evenodd" clip-rule="evenodd" d="M11.1288 10.2247L9.09787 8.77307L7.0669 10.2247L7.84804 7.88441L5.81268 6.43927L8.32553 6.44358L9.09787 4.099L9.87021 6.44358L12.3831 6.43927L10.3477 7.88441L11.1288 10.2247Z" fill="#FBB12A"/>
</g>
<defs>
<clipPath id="clip0">
<rect width="18" height="18" fill="white" transform="matrix(-1 0 0 1 18 0.5)"/>
</clipPath>
</defs>
</svg>
