<svg width="18" height="19" viewBox="0 0 18 19" fill="none" xmlns="http://www.w3.org/2000/svg">
<path d="M9.06808 13.2071L9.50591 12.2876L8.02213 4.71789C7.60862 2.58708 8.10483 1.65789 9.77835 1.33681V1.30762H8.23132C7.78375 1.5314 6.8351 2.20275 7.36537 4.71302L9.06808 13.2071Z" fill="#245ABC"/>
<path d="M8.19243 15.0363L8.62541 14.1217L6.67946 4.66924C6.3146 2.83519 6.47027 1.88167 7.07838 1.33681V1.30762H6.02757C5.70649 1.99356 5.60919 2.67951 5.97892 4.4941L8.19243 15.0363ZM7.2973 16.8606L7.73027 15.9557L5.29784 4.46978C4.86973 2.68437 4.96703 1.86708 5.14216 1.30762H4.21297C4.20327 2.27364 4.3277 3.23634 4.5827 4.16816L7.2973 16.8606ZM3.36162 1.30762H2.26703V1.33681C2.75351 1.93032 2.89946 2.65519 3.28865 4.25573L6.20757 17.7946H6.86433L3.94541 4.21194C3.69323 3.2563 3.49829 2.28647 3.36162 1.30762ZM1.17243 1.30762H0V1.33681C1.07027 1.76005 1.59568 2.57248 2.01892 4.47464L4.90378 17.7898H5.56054L2.65622 4.39194C2.15514 2.06654 1.62973 1.63843 1.17243 1.30762ZM16.0881 1.30762C14.7065 2.11518 13.8843 3.6087 12.1622 7.31086L12.2059 7.33519C14.1957 3.6087 15.3292 2.12491 17.8978 1.3514V1.30762H16.0881ZM12.0649 7.23789L12.1087 7.26708C13.7432 3.41897 14.1714 2.34383 14.8378 1.33681V1.30762H13.5146V1.34654C13.6508 2.8887 13.1351 4.30924 12.0649 7.23789Z" fill="#245ABC"/>
<path d="M11.9773 7.17951L12.0211 7.2087C13.0573 3.75951 13.393 2.23681 12.4784 1.30762H11.1892V1.33681C12.6487 1.85248 12.9503 3.32654 11.9773 7.17951Z" fill="#245ABC"/>
</svg>
